{"pagination": {"start": 1, "limit": 100, "count": 596, "previous": "", "next": "api/user/f8a3b78dfe023f9465d9da742741c28d/concept?start=101&limit=100"}, "results": [{"wikidata_id": "Q179012", "title_en": "Project management", "title_fr": "Gestion de projet", "trueskill_mu": 59.82, "trueskill_sigma": 12.129}, {"wikidata_id": "Q207006", "title_en": "Wolfram Alpha", "title_fr": "WolframAlpha", "trueskill_mu": 58.18, "trueskill_sigma": 9.021}, {"wikidata_id": "Q132364", "title_en": "Communication protocol", "title_fr": "Protocole de communication", "trueskill_mu": 58.045, "trueskill_sigma": 7.907}, {"wikidata_id": "Q161688", "title_en": "1-Wire", "title_fr": "1-Wire", "trueskill_mu": 57.811, "trueskill_sigma": 9.542}, {"wikidata_id": "Q750469", "title_en": "I\u00b2C", "title_fr": "I2C", "trueskill_mu": 57.584, "trueskill_sigma": 10.873}, {"wikidata_id": "Q384176", "title_en": "Stroop effect", "title_fr": "Effet Stroop", "trueskill_mu": 57.531, "trueskill_sigma": 12.129}, {"wikidata_id": "Q12646565", "title_en": "Experience curve effects", "title_fr": null, "trueskill_mu": 57.531, "trueskill_sigma": 12.129}, {"wikidata_id": "Q7981138", "title_en": "Well travelled road effect", "title_fr": null, "trueskill_mu": 57.531, "trueskill_sigma": 14.575}, {"wikidata_id": "Q7339255", "title_en": "Road-effect zone", "title_fr": null, "trueskill_mu": 57.531, "trueskill_sigma": 14.575}, {"wikidata_id": "Q6044097", "title_en": "Intelligent design and science", "title_fr": null, "trueskill_mu": 57.465, "trueskill_sigma": 12.129}, {"wikidata_id": "Q3048947", "title_en": "Ken Burns effect", "title_fr": "Effet Ken Burns", "trueskill_mu": 57.115, "trueskill_sigma": 8.422}, {"wikidata_id": "Q172137", "title_en": "Lorentz force", "title_fr": "Force de Lorentz", "trueskill_mu": 56.911, "trueskill_sigma": 12.129}, {"wikidata_id": "Q840970", "title_en": "Magnetostriction", "title_fr": "Magn\u00e9tostriction", "trueskill_mu": 56.911, "trueskill_sigma": 12.129}, {"wikidata_id": "Q1186329", "title_en": "Maxwell stress tensor", "title_fr": "Tenseur des contraintes de Maxwell", "trueskill_mu": 56.911, "trueskill_sigma": 12.129}, {"wikidata_id": "Q583042", "title_en": "Antiresonance", "title_fr": null, "trueskill_mu": 56.911, "trueskill_sigma": 15.304}, {"wikidata_id": "Q72313", "title_en": "Electric motor", "title_fr": "Machine \u00e9lectrique", "trueskill_mu": 56.911, "trueskill_sigma": 15.304}, {"wikidata_id": "Q5141464", "title_en": "Electromagnetically excited acoustic noise and vibration", "title_fr": null, "trueskill_mu": 56.911, "trueskill_sigma": 15.304}, {"wikidata_id": "Q7446278", "title_en": "Segmentation-based object categorization", "title_fr": null, "trueskill_mu": 56.794, "trueskill_sigma": 9.015}, {"wikidata_id": "Q3417382", "title_en": "Refinement (computing)", "title_fr": "Raffinement", "trueskill_mu": 56.726, "trueskill_sigma": 10.506}, {"wikidata_id": "Q1628157", "title_en": "Inpainting", "title_fr": "Inpainting", "trueskill_mu": 56.62, "trueskill_sigma": 8.111}, {"wikidata_id": "Q7922633", "title_en": "Versant Object Database", "title_fr": null, "trueskill_mu": 56.617, "trueskill_sigma": 15.331}, {"wikidata_id": "Q5267020", "title_en": "Device driver synthesis and verification", "title_fr": null, "trueskill_mu": 56.617, "trueskill_sigma": 15.331}, {"wikidata_id": "Q193321", "title_en": "Java virtual machine", "title_fr": "Machine virtuelle Java", "trueskill_mu": 56.617, "trueskill_sigma": 15.331}, {"wikidata_id": "Q187526", "title_en": "Melanin", "title_fr": "M\u00e9lanine", "trueskill_mu": 54.996, "trueskill_sigma": 14.575}, {"wikidata_id": "Q764", "title_en": "Fungus", "title_fr": "Fungi", "trueskill_mu": 54.996, "trueskill_sigma": 14.575}, {"wikidata_id": "Q40889861", "title_en": "MIMO radar", "title_fr": null, "trueskill_mu": 54.959, "trueskill_sigma": 15.304}, {"wikidata_id": "Q6664797", "title_en": "Location estimation in sensor networks", "title_fr": null, "trueskill_mu": 54.959, "trueskill_sigma": 15.304}, {"wikidata_id": "Q838287", "title_en": "Wi-Fi positioning system", "title_fr": null, "trueskill_mu": 54.959, "trueskill_sigma": 15.304}, {"wikidata_id": "Q42417405", "title_en": "Parsimonious reduction", "title_fr": null, "trueskill_mu": 54.75, "trueskill_sigma": 12.129}, {"wikidata_id": "Q45313001", "title_en": "Parsimony", "title_fr": null, "trueskill_mu": 54.75, "trueskill_sigma": 12.129}, {"wikidata_id": "Q3268325", "title_en": "Mobile security", "title_fr": "S\u00e9curit\u00e9 logicielle des smartphones", "trueskill_mu": 54.367, "trueskill_sigma": 10.003}, {"wikidata_id": "Q192833", "title_en": "Mind map", "title_fr": "Carte heuristique", "trueskill_mu": 54.303, "trueskill_sigma": 12.809}, {"wikidata_id": "Q1150166", "title_en": "Facilitator", "title_fr": "Facilitateur", "trueskill_mu": 54.303, "trueskill_sigma": 12.809}, {"wikidata_id": "Q1127759", "title_en": "Cognitive bias", "title_fr": "Biais cognitif", "trueskill_mu": 54.229, "trueskill_sigma": 7.694}, {"wikidata_id": "Q17058508", "title_en": "Interpersonal emotion regulation", "title_fr": null, "trueskill_mu": 53.684, "trueskill_sigma": 14.575}, {"wikidata_id": "Q6907102", "title_en": "Mood repair strategies", "title_fr": null, "trueskill_mu": 53.684, "trueskill_sigma": 14.575}, {"wikidata_id": "Q315", "title_en": "Language", "title_fr": "Langage", "trueskill_mu": 53.607, "trueskill_sigma": 8.52}, {"wikidata_id": "Q2891097", "title_en": "Gender inequality", "title_fr": null, "trueskill_mu": 53.52, "trueskill_sigma": 8.296}, {"wikidata_id": "Q113616", "title_en": "Women in science", "title_fr": "Place des femmes en sciences", "trueskill_mu": 53.394, "trueskill_sigma": 10.298}, {"wikidata_id": "Q25025241", "title_en": "Google Assistant", "title_fr": "Assistant Google", "trueskill_mu": 53.332, "trueskill_sigma": 12.553}, {"wikidata_id": "Q386776", "title_en": "Command pattern", "title_fr": "Commande (patron de conception)", "trueskill_mu": 53.332, "trueskill_sigma": 12.553}, {"wikidata_id": "Q2910672", "title_en": "Cognitive development", "title_fr": null, "trueskill_mu": 53.326, "trueskill_sigma": 12.129}, {"wikidata_id": "Q23373", "title_en": "Cognitive psychology", "title_fr": "Psychologie cognitive", "trueskill_mu": 53.326, "trueskill_sigma": 12.129}, {"wikidata_id": "Q28136831", "title_en": "Zero-sum thinking", "title_fr": null, "trueskill_mu": 53.326, "trueskill_sigma": 12.129}, {"wikidata_id": "Q192776", "title_en": "Artificial neural network", "title_fr": "R\u00e9seau de neurones artificiels", "trueskill_mu": 53.196, "trueskill_sigma": 15.304}, {"wikidata_id": "Q55624999", "title_en": "Neural network", "title_fr": null, "trueskill_mu": 53.196, "trueskill_sigma": 15.304}, {"wikidata_id": "Q28406367", "title_en": "Upconverting nanoparticles", "title_fr": null, "trueskill_mu": 52.859, "trueskill_sigma": 15.863}, {"wikidata_id": "Q93315", "title_en": "Cyanobacteria", "title_fr": "Cyanobacteria", "trueskill_mu": 52.859, "trueskill_sigma": 15.863}, {"wikidata_id": "Q11391", "title_en": "Ultraviolet", "title_fr": "Ultraviolet", "trueskill_mu": 52.859, "trueskill_sigma": 15.863}, {"wikidata_id": "Q3047120", "title_en": "Ectomycorrhiza", "title_fr": "Ectomycorhize", "trueskill_mu": 52.859, "trueskill_sigma": 15.863}, {"wikidata_id": "Q389963", "title_en": "Radiotrophic fungus", "title_fr": "Myc\u00e8te radiotrophe", "trueskill_mu": 52.859, "trueskill_sigma": 15.863}, {"wikidata_id": "Q130695", "title_en": "Caste system in India", "title_fr": "Castes en Inde", "trueskill_mu": 52.47, "trueskill_sigma": 10.689}, {"wikidata_id": "Q17049395", "title_en": "Caste politics", "title_fr": null, "trueskill_mu": 52.47, "trueskill_sigma": 10.689}, {"wikidata_id": "Q47037422", "title_en": "Spectre (security vulnerability)", "title_fr": "Spectre (vuln\u00e9rabilit\u00e9)", "trueskill_mu": 52.306, "trueskill_sigma": 14.575}, {"wikidata_id": "Q47036859", "title_en": "Meltdown (security vulnerability)", "title_fr": "Meltdown (vuln\u00e9rabilit\u00e9)", "trueskill_mu": 52.306, "trueskill_sigma": 14.575}, {"wikidata_id": "Q486494", "title_en": "Sensor fusion", "title_fr": null, "trueskill_mu": 52.182, "trueskill_sigma": 10.939}, {"wikidata_id": "Q28456226", "title_en": "Physically based rendering", "title_fr": "Rendu physique r\u00e9aliste", "trueskill_mu": 52.115, "trueskill_sigma": 7.587}, {"wikidata_id": "Q619942", "title_en": "Ray tracing (graphics)", "title_fr": "Ray tracing", "trueskill_mu": 52.102, "trueskill_sigma": 8.97}, {"wikidata_id": "Q3112394", "title_en": "Energy policy of the United States", "title_fr": null, "trueskill_mu": 52.006, "trueskill_sigma": 14.575}, {"wikidata_id": "Q1832610", "title_en": "Grid energy storage", "title_fr": null, "trueskill_mu": 52.006, "trueskill_sigma": 14.575}, {"wikidata_id": "Q939559", "title_en": "Photorealism", "title_fr": "Photor\u00e9alisme (mouvement)", "trueskill_mu": 51.915, "trueskill_sigma": 11.109}, {"wikidata_id": "Q1156793", "title_en": "Program optimization", "title_fr": "Optimisation de code", "trueskill_mu": 51.599, "trueskill_sigma": 14.545}, {"wikidata_id": "Q768575", "title_en": "Lens (optics)", "title_fr": "Lentille optique", "trueskill_mu": 51.291, "trueskill_sigma": 13.278}, {"wikidata_id": "Q668500", "title_en": "Movie projector", "title_fr": null, "trueskill_mu": 51.291, "trueskill_sigma": 13.278}, {"wikidata_id": "Q424083", "title_en": "Acoustic phonetics", "title_fr": "Phon\u00e9tique acoustique", "trueskill_mu": 51.267, "trueskill_sigma": 11.393}, {"wikidata_id": "Q4200299", "title_en": "Ocular immune system", "title_fr": null, "trueskill_mu": 51.092, "trueskill_sigma": 12.129}, {"wikidata_id": "Q335555", "title_en": "Sj\u00f6gren syndrome", "title_fr": "Syndrome de Gougerot-Sj\u00f6gren", "trueskill_mu": 51.092, "trueskill_sigma": 12.129}, {"wikidata_id": "Q1500347", "title_en": "Human microbiota", "title_fr": "Microbiote de l'organisme humain", "trueskill_mu": 51.092, "trueskill_sigma": 12.129}, {"wikidata_id": "Q380775", "title_en": "Antimicrobial resistance", "title_fr": "R\u00e9sistance aux antibiotiques", "trueskill_mu": 51.092, "trueskill_sigma": 12.129}, {"wikidata_id": "Q7695656", "title_en": "Telautograph", "title_fr": null, "trueskill_mu": 50.99, "trueskill_sigma": 12.129}, {"wikidata_id": "Q721587", "title_en": "Telegraphy", "title_fr": null, "trueskill_mu": 50.99, "trueskill_sigma": 12.129}, {"wikidata_id": "Q131012", "title_en": "Occam's razor", "title_fr": "Rasoir d'Ockham", "trueskill_mu": 50.806, "trueskill_sigma": 9.091}, {"wikidata_id": "Q1", "title_en": "Universe", "title_fr": "Univers", "trueskill_mu": 50.694, "trueskill_sigma": 11.796}, {"wikidata_id": "Q47154", "title_en": "Lucretius", "title_fr": "Lucr\u00e8ce", "trueskill_mu": 50.676, "trueskill_sigma": 10.443}, {"wikidata_id": "Q237970", "title_en": "Ouroboros", "title_fr": "Ouroboros", "trueskill_mu": 50.651, "trueskill_sigma": 10.988}, {"wikidata_id": "Q460791", "title_en": "Thomas Wright (astronomer)", "title_fr": "Thomas Wright (astronome)", "trueskill_mu": 50.641, "trueskill_sigma": 11.553}, {"wikidata_id": "Q17455", "title_en": "John von Neumann", "title_fr": "John von Neumann", "trueskill_mu": 50.222, "trueskill_sigma": 12.129}, {"wikidata_id": "Q8556", "title_en": "Edsger W. Dijkstra", "title_fr": "Edsger Dijkstra", "trueskill_mu": 50.222, "trueskill_sigma": 12.129}, {"wikidata_id": "Q83303", "title_en": "Fortran", "title_fr": "Fortran", "trueskill_mu": 50.222, "trueskill_sigma": 12.129}, {"wikidata_id": "Q132874", "title_en": "Lisp (programming language)", "title_fr": "Lisp", "trueskill_mu": 50.222, "trueskill_sigma": 12.129}, {"wikidata_id": "Q21198", "title_en": "Computer science", "title_fr": "Informatique", "trueskill_mu": 50.222, "trueskill_sigma": 12.129}, {"wikidata_id": "Q815859", "title_en": "Language acquisition", "title_fr": "Acquisition du langage", "trueskill_mu": 50.197, "trueskill_sigma": 10.832}, {"wikidata_id": "Q1326388", "title_en": "Iterator", "title_fr": "It\u00e9rateur", "trueskill_mu": 50.19, "trueskill_sigma": 15.304}, {"wikidata_id": "Q5141226", "title_en": "Cognitive neuroscience of visual object recognition", "title_fr": null, "trueskill_mu": 50.087, "trueskill_sigma": 7.907}, {"wikidata_id": "Q1138951", "title_en": "Cognitive neuroscience", "title_fr": "Neurosciences cognitives", "trueskill_mu": 50.084, "trueskill_sigma": 9.542}, {"wikidata_id": "Q7167036", "title_en": "Perceptual learning", "title_fr": null, "trueskill_mu": 50.082, "trueskill_sigma": 10.873}, {"wikidata_id": "Q4867047", "title_en": "Basic science (psychology)", "title_fr": null, "trueskill_mu": 50.08, "trueskill_sigma": 12.129}, {"wikidata_id": "Q173183", "title_en": "Boolean algebra", "title_fr": "Alg\u00e8bre de Boole (logique)", "trueskill_mu": 50.0, "trueskill_sigma": 16.666}, {"wikidata_id": "Q357858", "title_en": "Adjoint functors", "title_fr": "Foncteur adjoint", "trueskill_mu": 50.0, "trueskill_sigma": 16.666}, {"wikidata_id": "Q2903821", "title_en": "Bimodule", "title_fr": "Bimodule", "trueskill_mu": 50.0, "trueskill_sigma": 16.666}, {"wikidata_id": "Q177251", "title_en": "Associative property", "title_fr": "Associativit\u00e9", "trueskill_mu": 50.0, "trueskill_sigma": 16.666}, {"wikidata_id": "Q206924", "title_en": "PCI Express", "title_fr": "PCI Express", "trueskill_mu": 50.0, "trueskill_sigma": 16.666}, {"wikidata_id": "Q17042768", "title_en": "SATA Express", "title_fr": null, "trueskill_mu": 50.0, "trueskill_sigma": 16.666}, {"wikidata_id": "Q2900783", "title_en": "Egocentric bias", "title_fr": "Biais \u00e9gocentrique", "trueskill_mu": 50.0, "trueskill_sigma": 16.666}, {"wikidata_id": "Q17014592", "title_en": "Fractal tree index", "title_fr": null, "trueskill_mu": 50.0, "trueskill_sigma": 16.666}, {"wikidata_id": "Q1273217", "title_en": "Email address", "title_fr": "Adresse \u00e9lectronique", "trueskill_mu": 50.0, "trueskill_sigma": 16.666}, {"wikidata_id": "Q782543", "title_en": "Graphical user interface", "title_fr": "Interface graphique", "trueskill_mu": 50.0, "trueskill_sigma": 16.666}, {"wikidata_id": "Q25303896", "title_en": "Chirp compression", "title_fr": null, "trueskill_mu": 50.0, "trueskill_sigma": 16.666}, {"wikidata_id": "Q598973", "title_en": "Pulse-density modulation", "title_fr": null, "trueskill_mu": 50.0, "trueskill_sigma": 16.666}, {"wikidata_id": "Q25303699", "title_en": "Multidimensional Digital Pre-distortion", "title_fr": null, "trueskill_mu": 50.0, "trueskill_sigma": 16.666}]}
